<?xml version="1.0" encoding="UTF-8" standalone="no"?>
<!-- Created with Inkscape (http://www.inkscape.org/) -->

<svg
   version="1.1"
   id="svg1"
   width="458.07617"
   height="337.96451"
   viewBox="0 0 458.07617 337.96451"
   sodipodi:docname="svg_binary_replacement1_busts.svg"
   inkscape:version="1.3 (1:1.3+202307231459+0e150ed6c4)"
   xmlns:inkscape="http://www.inkscape.org/namespaces/inkscape"
   xmlns:sodipodi="http://sodipodi.sourceforge.net/DTD/sodipodi-0.dtd"
   xmlns="http://www.w3.org/2000/svg"
   xmlns:svg="http://www.w3.org/2000/svg">
  <defs
     id="defs1" />
  <sodipodi:namedview
     id="namedview1"
     pagecolor="#ffffff"
     bordercolor="#666666"
     borderopacity="1.0"
     inkscape:showpageshadow="2"
     inkscape:pageopacity="0.0"
     inkscape:pagecheckerboard="0"
     inkscape:deskcolor="#d1d1d1"
     inkscape:zoom="1.0491266"
     inkscape:cx="195.40062"
     inkscape:cy="161.56296"
     inkscape:window-width="1920"
     inkscape:window-height="1012"
     inkscape:window-x="0"
     inkscape:window-y="0"
     inkscape:window-maximized="1"
     inkscape:current-layer="g1" />
  <g
     inkscape:groupmode="layer"
     inkscape:label="Image"
     id="g1"
     transform="translate(-116.49219,-0.92131231)">
    <path
       style="fill:#eeeded;fill-opacity:1"
       d="M 219.40625 0.97460938 C 215.48241 1.1687303 211.55803 1.4310932 207.65889 1.9204959 C 206.15696 2.1289868 204.68171 2.4927037 203.20114 2.8139239 C 198.60728 3.8811389 194.12765 5.4460978 189.88552 7.5088314 C 184.06157 10.324444 178.63997 13.954156 173.76198 18.199377 C 169.29031 22.079138 165.28601 26.48741 161.79311 31.26517 C 158.74004 35.401147 156.06599 39.814359 153.78082 44.418612 C 151.6057 48.812284 149.7871 53.381387 148.34154 58.066023 C 146.82053 63.082288 145.70641 68.22672 145.08977 73.433705 C 144.54205 77.970144 144.55241 82.547302 144.55013 87.109333 C 144.57354 92.086576 144.59337 97.064453 144.754 102.0396 C 144.91537 107.17616 145.30907 112.32656 146.38205 117.36139 C 147.09941 120.71554 148.06789 124.0269 149.42773 127.17969 C 151.12888 130.78642 153.17919 134.21365 155.23074 137.62877 C 157.13863 140.78709 159.08524 143.92613 161.21288 146.94214 C 164.49807 151.56924 168.23 155.87293 172.26809 159.85703 C 179.10448 166.55555 187.00244 172.18769 195.62565 176.35118 C 199.93027 178.42434 204.41662 180.12694 209.03195 181.36753 C 213.4436 182.56337 217.98717 183.28311 222.55635 183.45362 C 225.66191 183.59685 228.77773 183.48995 231.86891 183.163 C 234.09744 182.90931 236.31626 182.55189 238.49933 182.03495 C 242.48875 181.09138 246.30897 179.57867 250.14323 178.15315 C 253.82325 176.73564 257.4789 175.2548 261.11316 173.72375 C 265.88955 171.70565 270.60609 169.5448 275.23893 167.2156 C 280.85034 164.36915 286.34026 161.25946 291.51859 157.67864 C 294.55628 155.54656 297.5327 153.31957 300.32296 150.86952 C 303.30575 148.27962 306.11132 145.47919 308.66127 142.46088 C 313.41804 136.81111 317.26466 130.35689 319.70307 123.37337 C 321.02125 119.53007 322.0174 115.57905 322.77063 111.58766 C 323.8739 105.67587 324.34145 99.643804 324.12268 93.63313 C 324.05644 91.281565 323.87574 88.933502 323.61088 86.596294 C 323.31696 84.017203 322.90589 81.451517 322.38288 78.90912 C 321.28892 73.498811 319.61018 68.213685 317.47213 63.127051 C 316.18069 60.071594 314.71196 57.091865 313.08451 54.201396 C 311.23322 50.939591 309.23355 47.755994 306.97631 44.758129 C 304.75 41.780278 302.31062 38.962018 299.68611 36.32837 C 298.08404 34.725062 296.40687 33.198444 294.71838 31.687137 C 292.09668 29.3601 289.41379 27.101804 286.67775 24.910532 C 283.1848 22.123223 279.54846 19.516123 275.78898 17.100357 C 272.28075 14.862103 268.6707 12.780194 264.95582 10.903635 C 255.81766 6.3144053 245.97321 3.0283954 235.81852 1.6850198 C 231.0412 1.059523 226.21503 0.99162425 221.40392 0.96305259 C 220.73803 0.96690485 220.07214 0.97075711 219.40625 0.97460938 z M 452.88672 6.8964844 C 449.84612 7.1947383 446.84016 7.7572439 443.83016 8.2669184 C 439.7168 9.0167435 435.65327 10.051315 431.70477 11.430475 C 424.53557 13.840491 417.68074 17.157965 411.28921 21.197096 C 407.29202 23.706286 403.48908 26.518783 399.87707 29.55488 C 396.6482 32.290965 393.57714 35.213301 390.68726 38.305426 C 388.4875 40.65275 386.3863 43.093322 384.40374 45.626887 C 382.30152 48.300828 380.32996 51.076649 378.48437 53.933589 C 375.24572 58.952027 372.40637 64.230821 370.05042 69.720448 C 368.28416 73.86175 366.72853 78.099369 365.52378 82.439284 C 364.31445 86.763585 363.39428 91.169369 362.79122 95.619211 C 362.12949 100.43623 361.86794 105.30815 362.02391 110.16823 C 362.17622 115.1071 362.76255 120.03088 363.72757 124.87606 C 364.92383 130.69629 366.87253 136.37062 369.61938 141.64383 C 372.56174 147.38019 376.2753 152.71428 380.57254 157.51692 C 383.94965 161.30274 387.73949 164.70696 391.77169 167.78074 C 397.93412 172.4678 404.68192 176.37592 411.77859 179.46546 C 415.30967 180.99014 418.93204 182.30105 422.61409 183.41173 C 425.59616 184.31393 428.61618 185.09424 431.66435 185.73919 C 437.61996 186.98939 443.67116 187.81868 449.75453 188.06196 C 452.15895 188.17345 454.56791 188.18262 456.97385 188.11907 C 464.15019 187.93192 471.31981 187.00437 478.26807 185.18249 C 483.0625 183.93412 487.72364 182.18607 492.17926 180.02285 C 497.1691 177.60496 501.8856 174.64266 506.31064 171.30616 C 509.74117 168.70142 512.99339 165.86059 516.01875 162.79408 C 518.64768 160.13009 521.11002 157.30189 523.3964 154.33884 C 526.96011 149.71465 530.11826 144.77515 532.79433 139.58579 C 535.79987 133.72974 538.20789 127.5664 539.98144 121.22786 C 542.11699 113.50521 543.23732 105.49678 543.24037 97.482545 C 543.25088 94.646523 543.10726 91.810139 542.82593 88.988284 C 542.59372 86.728626 542.26103 84.480218 541.82918 82.250096 C 540.80805 76.807732 539.58068 71.402566 538.11496 66.062524 C 537.1425 62.550073 535.99468 59.084535 534.61459 55.710313 C 532.52447 50.587167 530.04738 45.614949 527.12725 40.913154 C 524.29855 36.390054 520.98704 32.167305 517.26971 28.340902 C 513.50331 24.481745 509.27318 21.063768 504.63526 18.305293 C 501.69079 16.544915 498.60862 15.01536 495.42724 13.731789 C 491.04887 11.953016 486.51364 10.56418 481.89445 9.5670068 C 478.3983 8.8145802 474.86044 8.2614015 471.30514 7.8775168 C 467.14399 7.4154346 462.95962 7.2228419 458.77745 7.0699918 C 456.95894 7.0047885 455.14002 6.9302436 453.32113 6.888236 C 453.17633 6.8909855 453.03152 6.8937349 452.88672 6.8964844 z M 251.35352 197.62891 C 238.46232 197.67845 225.57114 197.74147 212.68025 197.84431 C 208.953 197.88033 205.22469 197.9705 201.50598 198.23776 C 198.81454 198.43309 196.13286 198.75323 193.46861 199.18171 C 189.21239 199.86673 184.98635 200.80142 180.90205 202.19416 C 178.61616 202.94655 176.38464 203.8589 174.20972 204.88805 C 171.12828 206.37127 168.17383 208.13236 165.47015 210.23095 C 162.22343 212.71194 159.12971 215.38617 156.08883 218.11329 C 153.91554 220.0899 151.81256 222.14475 149.80833 224.29282 C 147.54898 226.702 145.40377 229.21788 143.38224 231.82982 C 137.53463 239.37034 132.69359 247.6747 128.86575 256.41095 C 125.58798 263.91527 122.94742 271.70129 121.05797 279.67081 C 119.5832 285.84092 118.48821 292.10241 117.80562 298.40977 C 117.4615 301.52588 117.22721 304.6537 117.08914 307.78576 C 116.90581 311.32514 116.81372 314.86834 116.69141 318.41016 C 116.86856 320.4184 117.51988 322.42562 118.79883 324.00781 C 120.25365 325.62492 122.27467 326.66596 124.39062 327.10623 C 128.53421 327.9759 132.79573 327.90355 137.00446 327.74753 C 142.66053 327.56346 148.31659 327.37938 153.97266 327.19531 C 160.44997 327.72485 166.92862 328.27771 173.42486 328.51386 C 190.77336 329.26514 208.12244 330.00358 225.47056 330.76289 C 235.54142 331.25098 245.60856 331.81235 255.67487 332.38537 C 265.68524 332.98678 275.69084 333.66463 285.69576 334.34983 C 295.82861 335.06896 305.96117 335.79455 316.08584 336.62245 C 326.43629 337.44578 336.78476 338.29416 347.13421 339.12972 C 348.46758 339.22577 349.83943 339.36953 351.13913 338.96317 C 353.26381 338.36869 355.02949 336.70441 355.83919 334.66193 C 356.62105 332.77628 356.82105 330.7229 357.1543 328.72656 C 357.29823 326.20359 357.24459 323.67419 357.08314 321.15344 C 356.73978 315.28069 356.38097 309.40837 356.16211 303.5293 C 356.057 301.32494 356.05048 299.09135 355.50694 296.93837 C 354.94142 294.43821 354.86089 291.86664 354.5954 289.32538 C 354.08757 283.85528 353.59691 278.38329 353.07841 272.91437 C 352.67893 269.64106 352.2044 266.37577 351.58873 263.13577 C 350.70314 258.42482 349.55452 253.75864 348.03659 249.2099 C 346.46565 244.49081 344.49472 239.89927 342.06426 235.55747 C 340.18788 232.18809 338.00107 228.98844 335.49932 226.05163 C 333.60511 223.79693 331.58141 221.65434 329.54565 219.52777 C 327.4124 217.30991 325.21737 215.14701 322.89286 213.12934 C 318.94918 209.77415 314.48115 207.07942 309.81836 204.84961 C 305.78097 202.94989 301.55495 201.46107 297.22951 200.36927 C 292.57894 199.19597 287.82923 198.40876 283.04756 198.03248 C 279.01019 197.74105 274.9601 197.68864 270.91372 197.65927 C 264.39366 197.62557 257.87365 197.6208 251.35352 197.62891 z M 469.02344 201.21875 C 455.43521 201.37202 441.84664 201.50726 428.25969 201.75367 C 422.89585 201.8537 417.52924 201.94503 412.17348 202.27255 C 408.50048 202.4929 404.84102 202.90496 401.20461 203.4641 C 397.85372 203.98937 394.5143 204.60793 391.22681 205.44862 C 388.0788 206.23555 384.9626 207.17089 381.95372 208.39231 C 379.48753 209.3494 377.07842 210.44511 374.65234 211.49805 C 373.41628 212.18441 372.55882 213.47742 372.3513 214.86961 C 371.74723 218.30578 371.67069 221.85816 372.37093 225.28617 C 373.24904 229.93581 374.96437 234.36402 376.51202 238.81868 C 378.35585 244.04098 380.23641 249.25164 381.95301 254.51744 C 383.18791 258.54024 383.64462 262.75517 383.78516 266.94727 C 384.06378 275.29827 384.37188 283.64867 384.53117 292.00308 C 384.65819 297.59705 384.72687 303.19373 384.97856 308.7837 C 385.26289 312.64376 386.03652 316.47351 387.35465 320.11532 C 387.74766 321.13817 388.03233 322.24778 388.76562 323.09375 C 389.51118 323.80956 390.61089 323.87306 391.58733 323.82279 C 402.58339 323.80845 413.57978 323.82184 424.57597 323.81816 C 474.54804 323.82083 524.52011 323.8235 574.49219 323.82617 C 574.42232 314.66006 574.3983 305.49308 574.19078 296.32868 C 574.08476 290.74051 573.62383 285.1623 572.92261 279.61863 C 572.31493 274.88282 571.45636 270.1755 570.23966 265.55679 C 569.57169 263.03487 568.80981 260.5373 567.9231 258.08331 C 565.65983 251.74215 562.50527 245.71261 558.51084 240.28893 C 556.39463 237.40186 554.03059 234.70814 551.64835 232.04024 C 549.24305 229.36886 546.75836 226.76169 544.05718 224.38579 C 540.08354 220.85596 535.75035 217.74195 531.21094 214.98242 C 524.76621 211.10392 517.85734 208.00091 510.68164 205.74671 C 503.40215 203.46826 495.85191 202.02759 488.23346 201.58828 C 485.43369 201.41045 482.62797 201.33664 479.82353 201.27475 C 476.22385 201.21029 472.62358 201.20896 469.02344 201.21875 z "
       id="path1" />
  </g>
</svg>
